<svg xmlns="http://www.w3.org/2000/svg" width="22.857" height="24" viewBox="0 0 22.857 24">
  <path id="icons8-money-bag-with-coins" d="M15.626,3a2.973,2.973,0,0,0-2.234,1.116H10.881A.837.837,0,0,0,10.1,5.248l1.459,3.891c-1.639,1.324-6.73,5.944-6.5,12.209a5.277,5.277,0,0,0,5.3,5.094h6.717A5.307,5.307,0,0,1,16,24.767H10.355a3.608,3.608,0,0,1-3.627-3.48c-.213-5.851,5.147-10.281,6.114-11.032h5.563A18.589,18.589,0,0,1,23,15.561a4.46,4.46,0,0,1,1.552-.282c.074,0,.146.008.219.011a19.6,19.6,0,0,0-5.081-6.15l1.46-3.892a.837.837,0,0,0-.784-1.132H17.859A2.973,2.973,0,0,0,15.626,3Zm0,1.674a1.374,1.374,0,0,1,1.2.7.837.837,0,0,0,.724.416h1.613L18.115,8.581h-4.98L12.089,5.791H13.7a.837.837,0,0,0,.724-.416A1.374,1.374,0,0,1,15.626,4.674ZM24.556,16.4a3.351,3.351,0,0,0-2.585,1.217,5.3,5.3,0,0,1,4.254,5.034A3.348,3.348,0,0,0,24.556,16.4Zm-3.628,2.233a4.186,4.186,0,1,0,4.186,4.186,4.186,4.186,0,0,0-4.186-4.186Z" transform="translate(-5.047 -3)" fill="#d3ae7a"/>
</svg>
