<svg xmlns="http://www.w3.org/2000/svg" width="16" height="20" viewBox="0 0 16 20">
  <path id="icons8-overview" d="M10.25,4A2.261,2.261,0,0,0,8,6.25v15.5A2.261,2.261,0,0,0,10.25,24h11.5A2.261,2.261,0,0,0,24,21.75V6.25A2.261,2.261,0,0,0,21.75,4Zm0,1.5h11.5a.739.739,0,0,1,.75.75v15.5a.739.739,0,0,1-.75.75H10.25a.739.739,0,0,1-.75-.75V6.25A.739.739,0,0,1,10.25,5.5Zm2,2a.75.75,0,1,0,0,1.5h7.5a.75.75,0,1,0,0-1.5Zm0,4.5a.75.75,0,1,0,0,1.5h4.5a.75.75,0,1,0,0-1.5Zm7.5,0a.75.75,0,1,0,.75.75A.75.75,0,0,0,19.75,12Zm-7.5,3a.75.75,0,1,0,0,1.5h3a.75.75,0,1,0,0-1.5Zm7.5,0a.75.75,0,1,0,.75.75A.75.75,0,0,0,19.75,15Zm-7.5,3a.75.75,0,1,0,0,1.5h4.5a.75.75,0,1,0,0-1.5Zm7.5,0a.75.75,0,1,0,.75.75A.75.75,0,0,0,19.75,18Z" transform="translate(-8 -4)" fill="#b2c0ce"/>
</svg>
