<svg xmlns="http://www.w3.org/2000/svg" width="20" height="20" viewBox="0 0 20 20">
  <path id="icons8-comments" d="M14,4A10.012,10.012,0,0,0,4,14a9.908,9.908,0,0,0,1.131,4.533L4.047,22.412a1.276,1.276,0,0,0,1.541,1.541l3.884-1.084A9.9,9.9,0,0,0,14,24,10,10,0,1,0,14,4Zm0,1.5A8.5,8.5,0,1,1,9.871,21.426a.75.75,0,0,0-.566-.067l-3.693,1.03L6.643,18.7a.75.75,0,0,0-.067-.567A8.5,8.5,0,0,1,14,5.5ZM18.75,10H9.25a.75.75,0,1,0,0,1.5h9.5a.75.75,0,1,0,0-1.5Zm0,3.249H9.25a.75.75,0,1,0,0,1.5h9.5a.75.75,0,1,0,0-1.5Zm-5,3.251H9.25a.75.75,0,1,0,0,1.5h4.5a.75.75,0,1,0,0-1.5Z" transform="translate(-4 -3.998)" fill="#0d9e8d"/>
</svg>
